('F:\\quoridor_grafica\\build\\Quoridor\\Quoridor.pkg',
 {'BINARY': 1,
  'DATA': 1,
  'EXECUTABLE': 1,
  'EXTENSION': 1,
  'PYMODULE': 1,
  'PYSOURCE': 1,
  'PYZ': 0,
  'SPLASH': 1},
 [('PYZ-00.pyz', 'F:\\quoridor_grafica\\build\\Quoridor\\PYZ-00.pyz', 'PYZ'),
  ('struct',
   'F:\\quoridor_grafica\\build\\Quoridor\\localpycos\\struct.pyo',
   'PYMODULE'),
  ('pyimod01_os_path',
   'C:\\Users\\prova\\AppData\\Roaming\\Python\\Python310\\site-packages\\PyInstaller\\loader\\pyimod01_os_path.pyc',
   'PYMODULE'),
  ('pyimod02_archive',
   'C:\\Users\\prova\\AppData\\Roaming\\Python\\Python310\\site-packages\\PyInstaller\\loader\\pyimod02_archive.pyc',
   'PYMODULE'),
  ('pyimod03_importers',
   'C:\\Users\\prova\\AppData\\Roaming\\Python\\Python310\\site-packages\\PyInstaller\\loader\\pyimod03_importers.pyc',
   'PYMODULE'),
  ('pyimod04_ctypes',
   'C:\\Users\\prova\\AppData\\Roaming\\Python\\Python310\\site-packages\\PyInstaller\\loader\\pyimod04_ctypes.pyc',
   'PYMODULE'),
  ('pyiboot01_bootstrap',
   'C:\\Users\\prova\\AppData\\Roaming\\Python\\Python310\\site-packages\\PyInstaller\\loader\\pyiboot01_bootstrap.py',
   'PYSOURCE'),
  ('pyi_rth_subprocess',
   'C:\\Users\\prova\\AppData\\Roaming\\Python\\Python310\\site-packages\\PyInstaller\\hooks\\rthooks\\pyi_rth_subprocess.py',
   'PYSOURCE'),
  ('pyi_rth_inspect',
   'C:\\Users\\prova\\AppData\\Roaming\\Python\\Python310\\site-packages\\PyInstaller\\hooks\\rthooks\\pyi_rth_inspect.py',
   'PYSOURCE'),
  ('pyi_rth_pkgutil',
   'C:\\Users\\prova\\AppData\\Roaming\\Python\\Python310\\site-packages\\PyInstaller\\hooks\\rthooks\\pyi_rth_pkgutil.py',
   'PYSOURCE'),
  ('pyi_rth_multiprocessing',
   'C:\\Users\\prova\\AppData\\Roaming\\Python\\Python310\\site-packages\\PyInstaller\\hooks\\rthooks\\pyi_rth_multiprocessing.py',
   'PYSOURCE'),
  ('pyi_rth_pyqt5',
   'C:\\Users\\prova\\AppData\\Roaming\\Python\\Python310\\site-packages\\PyInstaller\\hooks\\rthooks\\pyi_rth_pyqt5.py',
   'PYSOURCE'),
  ('main_quoridor_grafica',
   '\\\\VBoxSvr\\programmi_python\\quoridor_grafica\\main_quoridor_grafica.py',
   'PYSOURCE'),
  ('VCRUNTIME140.dll',
   'C:\\Program Files\\Python310\\VCRUNTIME140.dll',
   'BINARY'),
  ('python310.dll', 'C:\\Program Files\\Python310\\python310.dll', 'BINARY'),
  ('PyQt5\\Qt5\\plugins\\imageformats\\qico.dll',
   'C:\\Program '
   'Files\\Python310\\lib\\site-packages\\PyQt5\\Qt5\\plugins\\imageformats\\qico.dll',
   'BINARY'),
  ('PyQt5\\Qt5\\plugins\\imageformats\\qwbmp.dll',
   'C:\\Program '
   'Files\\Python310\\lib\\site-packages\\PyQt5\\Qt5\\plugins\\imageformats\\qwbmp.dll',
   'BINARY'),
  ('PyQt5\\Qt5\\plugins\\platforms\\qwebgl.dll',
   'C:\\Program '
   'Files\\Python310\\lib\\site-packages\\PyQt5\\Qt5\\plugins\\platforms\\qwebgl.dll',
   'BINARY'),
  ('PyQt5\\Qt5\\plugins\\imageformats\\qjpeg.dll',
   'C:\\Program '
   'Files\\Python310\\lib\\site-packages\\PyQt5\\Qt5\\plugins\\imageformats\\qjpeg.dll',
   'BINARY'),
  ('PyQt5\\Qt5\\plugins\\imageformats\\qtga.dll',
   'C:\\Program '
   'Files\\Python310\\lib\\site-packages\\PyQt5\\Qt5\\plugins\\imageformats\\qtga.dll',
   'BINARY'),
  ('PyQt5\\Qt5\\plugins\\imageformats\\qtiff.dll',
   'C:\\Program '
   'Files\\Python310\\lib\\site-packages\\PyQt5\\Qt5\\plugins\\imageformats\\qtiff.dll',
   'BINARY'),
  ('d3dcompiler_47.dll',
   'C:\\Program '
   'Files\\Python310\\lib\\site-packages\\PyQt5\\Qt5\\bin\\d3dcompiler_47.dll',
   'BINARY'),
  ('PyQt5\\Qt5\\plugins\\iconengines\\qsvgicon.dll',
   'C:\\Program '
   'Files\\Python310\\lib\\site-packages\\PyQt5\\Qt5\\plugins\\iconengines\\qsvgicon.dll',
   'BINARY'),
  ('libGLESv2.dll',
   'C:\\Program '
   'Files\\Python310\\lib\\site-packages\\PyQt5\\Qt5\\bin\\libGLESv2.dll',
   'BINARY'),
  ('opengl32sw.dll',
   'C:\\Program '
   'Files\\Python310\\lib\\site-packages\\PyQt5\\Qt5\\bin\\opengl32sw.dll',
   'BINARY'),
  ('PyQt5\\Qt5\\plugins\\platforms\\qoffscreen.dll',
   'C:\\Program '
   'Files\\Python310\\lib\\site-packages\\PyQt5\\Qt5\\plugins\\platforms\\qoffscreen.dll',
   'BINARY'),
  ('PyQt5\\Qt5\\plugins\\imageformats\\qgif.dll',
   'C:\\Program '
   'Files\\Python310\\lib\\site-packages\\PyQt5\\Qt5\\plugins\\imageformats\\qgif.dll',
   'BINARY'),
  ('PyQt5\\Qt5\\plugins\\platforms\\qwindows.dll',
   'C:\\Program '
   'Files\\Python310\\lib\\site-packages\\PyQt5\\Qt5\\plugins\\platforms\\qwindows.dll',
   'BINARY'),
  ('libopenblas.EL2C6PLE4ZYW3ECEVIV3OXXGRN2NRFM2.gfortran-win_amd64.dll',
   'C:\\Users\\prova\\AppData\\Roaming\\Python\\Python310\\site-packages\\numpy\\.libs\\libopenblas.EL2C6PLE4ZYW3ECEVIV3OXXGRN2NRFM2.gfortran-win_amd64.dll',
   'BINARY'),
  ('PyQt5\\Qt5\\plugins\\platformthemes\\qxdgdesktopportal.dll',
   'C:\\Program '
   'Files\\Python310\\lib\\site-packages\\PyQt5\\Qt5\\plugins\\platformthemes\\qxdgdesktopportal.dll',
   'BINARY'),
  ('PyQt5\\Qt5\\plugins\\platforms\\qminimal.dll',
   'C:\\Program '
   'Files\\Python310\\lib\\site-packages\\PyQt5\\Qt5\\plugins\\platforms\\qminimal.dll',
   'BINARY'),
  ('PyQt5\\Qt5\\plugins\\styles\\qwindowsvistastyle.dll',
   'C:\\Program '
   'Files\\Python310\\lib\\site-packages\\PyQt5\\Qt5\\plugins\\styles\\qwindowsvistastyle.dll',
   'BINARY'),
  ('PyQt5\\Qt5\\plugins\\imageformats\\qsvg.dll',
   'C:\\Program '
   'Files\\Python310\\lib\\site-packages\\PyQt5\\Qt5\\plugins\\imageformats\\qsvg.dll',
   'BINARY'),
  ('PyQt5\\Qt5\\plugins\\imageformats\\qwebp.dll',
   'C:\\Program '
   'Files\\Python310\\lib\\site-packages\\PyQt5\\Qt5\\plugins\\imageformats\\qwebp.dll',
   'BINARY'),
  ('PyQt5\\Qt5\\plugins\\imageformats\\qicns.dll',
   'C:\\Program '
   'Files\\Python310\\lib\\site-packages\\PyQt5\\Qt5\\plugins\\imageformats\\qicns.dll',
   'BINARY'),
  ('libEGL.dll',
   'C:\\Program '
   'Files\\Python310\\lib\\site-packages\\PyQt5\\Qt5\\bin\\libEGL.dll',
   'BINARY'),
  ('_multiprocessing',
   'C:\\Program Files\\Python310\\DLLs\\_multiprocessing.pyd',
   'EXTENSION'),
  ('pyexpat', 'C:\\Program Files\\Python310\\DLLs\\pyexpat.pyd', 'EXTENSION'),
  ('_ssl', 'C:\\Program Files\\Python310\\DLLs\\_ssl.pyd', 'EXTENSION'),
  ('_hashlib', 'C:\\Program Files\\Python310\\DLLs\\_hashlib.pyd', 'EXTENSION'),
  ('unicodedata',
   'C:\\Program Files\\Python310\\DLLs\\unicodedata.pyd',
   'EXTENSION'),
  ('_decimal', 'C:\\Program Files\\Python310\\DLLs\\_decimal.pyd', 'EXTENSION'),
  ('_socket', 'C:\\Program Files\\Python310\\DLLs\\_socket.pyd', 'EXTENSION'),
  ('select', 'C:\\Program Files\\Python310\\DLLs\\select.pyd', 'EXTENSION'),
  ('_lzma', 'C:\\Program Files\\Python310\\DLLs\\_lzma.pyd', 'EXTENSION'),
  ('_bz2', 'C:\\Program Files\\Python310\\DLLs\\_bz2.pyd', 'EXTENSION'),
  ('_overlapped',
   'C:\\Program Files\\Python310\\DLLs\\_overlapped.pyd',
   'EXTENSION'),
  ('_asyncio', 'C:\\Program Files\\Python310\\DLLs\\_asyncio.pyd', 'EXTENSION'),
  ('_queue', 'C:\\Program Files\\Python310\\DLLs\\_queue.pyd', 'EXTENSION'),
  ('_ctypes', 'C:\\Program Files\\Python310\\DLLs\\_ctypes.pyd', 'EXTENSION'),
  ('numpy.core._multiarray_umath',
   'C:\\Users\\prova\\AppData\\Roaming\\Python\\Python310\\site-packages\\numpy\\core\\_multiarray_umath.cp310-win_amd64.pyd',
   'EXTENSION'),
  ('numpy.core._multiarray_tests',
   'C:\\Users\\prova\\AppData\\Roaming\\Python\\Python310\\site-packages\\numpy\\core\\_multiarray_tests.cp310-win_amd64.pyd',
   'EXTENSION'),
  ('numpy.linalg.lapack_lite',
   'C:\\Users\\prova\\AppData\\Roaming\\Python\\Python310\\site-packages\\numpy\\linalg\\lapack_lite.cp310-win_amd64.pyd',
   'EXTENSION'),
  ('numpy.random.mtrand',
   'C:\\Users\\prova\\AppData\\Roaming\\Python\\Python310\\site-packages\\numpy\\random\\mtrand.cp310-win_amd64.pyd',
   'EXTENSION'),
  ('numpy.random._sfc64',
   'C:\\Users\\prova\\AppData\\Roaming\\Python\\Python310\\site-packages\\numpy\\random\\_sfc64.cp310-win_amd64.pyd',
   'EXTENSION'),
  ('numpy.random._philox',
   'C:\\Users\\prova\\AppData\\Roaming\\Python\\Python310\\site-packages\\numpy\\random\\_philox.cp310-win_amd64.pyd',
   'EXTENSION'),
  ('numpy.random._pcg64',
   'C:\\Users\\prova\\AppData\\Roaming\\Python\\Python310\\site-packages\\numpy\\random\\_pcg64.cp310-win_amd64.pyd',
   'EXTENSION'),
  ('numpy.random._mt19937',
   'C:\\Users\\prova\\AppData\\Roaming\\Python\\Python310\\site-packages\\numpy\\random\\_mt19937.cp310-win_amd64.pyd',
   'EXTENSION'),
  ('numpy.random.bit_generator',
   'C:\\Users\\prova\\AppData\\Roaming\\Python\\Python310\\site-packages\\numpy\\random\\bit_generator.cp310-win_amd64.pyd',
   'EXTENSION'),
  ('numpy.random._generator',
   'C:\\Users\\prova\\AppData\\Roaming\\Python\\Python310\\site-packages\\numpy\\random\\_generator.cp310-win_amd64.pyd',
   'EXTENSION'),
  ('numpy.random._bounded_integers',
   'C:\\Users\\prova\\AppData\\Roaming\\Python\\Python310\\site-packages\\numpy\\random\\_bounded_integers.cp310-win_amd64.pyd',
   'EXTENSION'),
  ('numpy.random._common',
   'C:\\Users\\prova\\AppData\\Roaming\\Python\\Python310\\site-packages\\numpy\\random\\_common.cp310-win_amd64.pyd',
   'EXTENSION'),
  ('numpy.fft._pocketfft_internal',
   'C:\\Users\\prova\\AppData\\Roaming\\Python\\Python310\\site-packages\\numpy\\fft\\_pocketfft_internal.cp310-win_amd64.pyd',
   'EXTENSION'),
  ('numpy.linalg._umath_linalg',
   'C:\\Users\\prova\\AppData\\Roaming\\Python\\Python310\\site-packages\\numpy\\linalg\\_umath_linalg.cp310-win_amd64.pyd',
   'EXTENSION'),
  ('PyQt5.QtWidgets',
   'C:\\Program Files\\Python310\\lib\\site-packages\\PyQt5\\QtWidgets.pyd',
   'EXTENSION'),
  ('PyQt5.QtGui',
   'C:\\Program Files\\Python310\\lib\\site-packages\\PyQt5\\QtGui.pyd',
   'EXTENSION'),
  ('PyQt5.QtCore',
   'C:\\Program Files\\Python310\\lib\\site-packages\\PyQt5\\QtCore.pyd',
   'EXTENSION'),
  ('PyQt5.sip',
   'C:\\Program '
   'Files\\Python310\\lib\\site-packages\\PyQt5\\sip.cp310-win_amd64.pyd',
   'EXTENSION'),
  ('Qt5Core.dll',
   'C:\\Program '
   'Files\\Python310\\lib\\site-packages\\PyQt5\\Qt5\\bin\\Qt5Core.dll',
   'BINARY'),
  ('Qt5Gui.dll',
   'C:\\Program '
   'Files\\Python310\\lib\\site-packages\\PyQt5\\Qt5\\bin\\Qt5Gui.dll',
   'BINARY'),
  ('Qt5Network.dll',
   'C:\\Program '
   'Files\\Python310\\lib\\site-packages\\PyQt5\\Qt5\\bin\\Qt5Network.dll',
   'BINARY'),
  ('Qt5Quick.dll',
   'C:\\Program '
   'Files\\Python310\\lib\\site-packages\\PyQt5\\Qt5\\bin\\Qt5Quick.dll',
   'BINARY'),
  ('MSVCP140.dll', 'C:\\Windows\\system32\\MSVCP140.dll', 'BINARY'),
  ('Qt5WebSockets.dll',
   'C:\\Program '
   'Files\\Python310\\lib\\site-packages\\PyQt5\\Qt5\\bin\\Qt5WebSockets.dll',
   'BINARY'),
  ('Qt5Svg.dll',
   'C:\\Program '
   'Files\\Python310\\lib\\site-packages\\PyQt5\\Qt5\\bin\\Qt5Svg.dll',
   'BINARY'),
  ('VCRUNTIME140_1.dll',
   'C:\\Program '
   'Files\\Python310\\lib\\site-packages\\PyQt5\\Qt5\\bin\\VCRUNTIME140_1.dll',
   'BINARY'),
  ('Qt5DBus.dll',
   'C:\\Program '
   'Files\\Python310\\lib\\site-packages\\PyQt5\\Qt5\\bin\\Qt5DBus.dll',
   'BINARY'),
  ('Qt5Widgets.dll',
   'C:\\Program '
   'Files\\Python310\\lib\\site-packages\\PyQt5\\Qt5\\bin\\Qt5Widgets.dll',
   'BINARY'),
  ('libssl-1_1.dll',
   'C:\\Program Files\\Python310\\DLLs\\libssl-1_1.dll',
   'BINARY'),
  ('libcrypto-1_1.dll',
   'C:\\Program Files\\Python310\\DLLs\\libcrypto-1_1.dll',
   'BINARY'),
  ('libffi-7.dll',
   'C:\\Program Files\\Python310\\DLLs\\libffi-7.dll',
   'BINARY'),
  ('python3.dll', 'C:\\Program Files\\Python310\\python3.dll', 'BINARY'),
  ('MSVCP140_1.dll',
   'C:\\Program '
   'Files\\Python310\\lib\\site-packages\\PyQt5\\Qt5\\bin\\MSVCP140_1.dll',
   'BINARY'),
  ('Qt5QmlModels.dll',
   'C:\\Program '
   'Files\\Python310\\lib\\site-packages\\PyQt5\\Qt5\\bin\\Qt5QmlModels.dll',
   'BINARY'),
  ('Qt5Qml.dll',
   'C:\\Program '
   'Files\\Python310\\lib\\site-packages\\PyQt5\\Qt5\\bin\\Qt5Qml.dll',
   'BINARY'),
  ('base_library.zip',
   'F:\\quoridor_grafica\\build\\Quoridor\\base_library.zip',
   'DATA'),
  ('PyQt5\\Qt5\\translations\\qtbase_pl.qm',
   'C:\\Program '
   'Files\\Python310\\lib\\site-packages\\PyQt5\\Qt5\\translations\\qtbase_pl.qm',
   'DATA'),
  ('PyQt5\\Qt5\\translations\\qtbase_ru.qm',
   'C:\\Program '
   'Files\\Python310\\lib\\site-packages\\PyQt5\\Qt5\\translations\\qtbase_ru.qm',
   'DATA'),
  ('PyQt5\\Qt5\\translations\\qtbase_ca.qm',
   'C:\\Program '
   'Files\\Python310\\lib\\site-packages\\PyQt5\\Qt5\\translations\\qtbase_ca.qm',
   'DATA'),
  ('PyQt5\\Qt5\\translations\\qtbase_de.qm',
   'C:\\Program '
   'Files\\Python310\\lib\\site-packages\\PyQt5\\Qt5\\translations\\qtbase_de.qm',
   'DATA'),
  ('PyQt5\\Qt5\\translations\\qtbase_bg.qm',
   'C:\\Program '
   'Files\\Python310\\lib\\site-packages\\PyQt5\\Qt5\\translations\\qtbase_bg.qm',
   'DATA'),
  ('PyQt5\\Qt5\\translations\\qtbase_gd.qm',
   'C:\\Program '
   'Files\\Python310\\lib\\site-packages\\PyQt5\\Qt5\\translations\\qtbase_gd.qm',
   'DATA'),
  ('PyQt5\\Qt5\\translations\\qtbase_lv.qm',
   'C:\\Program '
   'Files\\Python310\\lib\\site-packages\\PyQt5\\Qt5\\translations\\qtbase_lv.qm',
   'DATA'),
  ('PyQt5\\Qt5\\translations\\qtbase_hu.qm',
   'C:\\Program '
   'Files\\Python310\\lib\\site-packages\\PyQt5\\Qt5\\translations\\qtbase_hu.qm',
   'DATA'),
  ('PyQt5\\Qt5\\translations\\qtbase_sk.qm',
   'C:\\Program '
   'Files\\Python310\\lib\\site-packages\\PyQt5\\Qt5\\translations\\qtbase_sk.qm',
   'DATA'),
  ('PyQt5\\Qt5\\translations\\qtbase_he.qm',
   'C:\\Program '
   'Files\\Python310\\lib\\site-packages\\PyQt5\\Qt5\\translations\\qtbase_he.qm',
   'DATA'),
  ('PyQt5\\Qt5\\translations\\qtbase_fi.qm',
   'C:\\Program '
   'Files\\Python310\\lib\\site-packages\\PyQt5\\Qt5\\translations\\qtbase_fi.qm',
   'DATA'),
  ('PyQt5\\Qt5\\translations\\qtbase_ja.qm',
   'C:\\Program '
   'Files\\Python310\\lib\\site-packages\\PyQt5\\Qt5\\translations\\qtbase_ja.qm',
   'DATA'),
  ('PyQt5\\Qt5\\translations\\qtbase_en.qm',
   'C:\\Program '
   'Files\\Python310\\lib\\site-packages\\PyQt5\\Qt5\\translations\\qtbase_en.qm',
   'DATA'),
  ('PyQt5\\Qt5\\translations\\qtbase_es.qm',
   'C:\\Program '
   'Files\\Python310\\lib\\site-packages\\PyQt5\\Qt5\\translations\\qtbase_es.qm',
   'DATA'),
  ('PyQt5\\Qt5\\translations\\qtbase_ko.qm',
   'C:\\Program '
   'Files\\Python310\\lib\\site-packages\\PyQt5\\Qt5\\translations\\qtbase_ko.qm',
   'DATA'),
  ('PyQt5\\Qt5\\translations\\qtbase_zh_TW.qm',
   'C:\\Program '
   'Files\\Python310\\lib\\site-packages\\PyQt5\\Qt5\\translations\\qtbase_zh_TW.qm',
   'DATA'),
  ('PyQt5\\Qt5\\translations\\qtbase_uk.qm',
   'C:\\Program '
   'Files\\Python310\\lib\\site-packages\\PyQt5\\Qt5\\translations\\qtbase_uk.qm',
   'DATA'),
  ('PyQt5\\Qt5\\translations\\qtbase_cs.qm',
   'C:\\Program '
   'Files\\Python310\\lib\\site-packages\\PyQt5\\Qt5\\translations\\qtbase_cs.qm',
   'DATA'),
  ('PyQt5\\Qt5\\translations\\qtbase_ar.qm',
   'C:\\Program '
   'Files\\Python310\\lib\\site-packages\\PyQt5\\Qt5\\translations\\qtbase_ar.qm',
   'DATA'),
  ('PyQt5\\Qt5\\translations\\qtbase_tr.qm',
   'C:\\Program '
   'Files\\Python310\\lib\\site-packages\\PyQt5\\Qt5\\translations\\qtbase_tr.qm',
   'DATA'),
  ('PyQt5\\Qt5\\translations\\qtbase_da.qm',
   'C:\\Program '
   'Files\\Python310\\lib\\site-packages\\PyQt5\\Qt5\\translations\\qtbase_da.qm',
   'DATA'),
  ('PyQt5\\Qt5\\translations\\qtbase_fr.qm',
   'C:\\Program '
   'Files\\Python310\\lib\\site-packages\\PyQt5\\Qt5\\translations\\qtbase_fr.qm',
   'DATA'),
  ('PyQt5\\Qt5\\translations\\qtbase_it.qm',
   'C:\\Program '
   'Files\\Python310\\lib\\site-packages\\PyQt5\\Qt5\\translations\\qtbase_it.qm',
   'DATA'),
  ('altgraph-0.17.2.dist-info\\LICENSE',
   'c:\\program '
   'files\\python310\\lib\\site-packages\\altgraph-0.17.2.dist-info\\LICENSE',
   'DATA'),
  ('pyinstaller-4.10.dist-info\\top_level.txt',
   'c:\\users\\prova\\appdata\\roaming\\python\\python310\\site-packages\\pyinstaller-4.10.dist-info\\top_level.txt',
   'DATA'),
  ('pyinstaller-4.10.dist-info\\RECORD',
   'c:\\users\\prova\\appdata\\roaming\\python\\python310\\site-packages\\pyinstaller-4.10.dist-info\\RECORD',
   'DATA'),
  ('setuptools-57.4.0.dist-info\\LICENSE',
   'c:\\program '
   'files\\python310\\lib\\site-packages\\setuptools-57.4.0.dist-info\\LICENSE',
   'DATA'),
  ('pyinstaller-4.10.dist-info\\INSTALLER',
   'c:\\users\\prova\\appdata\\roaming\\python\\python310\\site-packages\\pyinstaller-4.10.dist-info\\INSTALLER',
   'DATA'),
  ('pyinstaller-4.10.dist-info\\entry_points.txt',
   'c:\\users\\prova\\appdata\\roaming\\python\\python310\\site-packages\\pyinstaller-4.10.dist-info\\entry_points.txt',
   'DATA'),
  ('altgraph-0.17.2.dist-info\\METADATA',
   'c:\\program '
   'files\\python310\\lib\\site-packages\\altgraph-0.17.2.dist-info\\METADATA',
   'DATA'),
  ('setuptools-57.4.0.dist-info\\METADATA',
   'c:\\program '
   'files\\python310\\lib\\site-packages\\setuptools-57.4.0.dist-info\\METADATA',
   'DATA'),
  ('setuptools-57.4.0.dist-info\\top_level.txt',
   'c:\\program '
   'files\\python310\\lib\\site-packages\\setuptools-57.4.0.dist-info\\top_level.txt',
   'DATA'),
  ('altgraph-0.17.2.dist-info\\zip-safe',
   'c:\\program '
   'files\\python310\\lib\\site-packages\\altgraph-0.17.2.dist-info\\zip-safe',
   'DATA'),
  ('setuptools-57.4.0.dist-info\\entry_points.txt',
   'c:\\program '
   'files\\python310\\lib\\site-packages\\setuptools-57.4.0.dist-info\\entry_points.txt',
   'DATA'),
  ('pyinstaller-4.10.dist-info\\REQUESTED',
   'c:\\users\\prova\\appdata\\roaming\\python\\python310\\site-packages\\pyinstaller-4.10.dist-info\\REQUESTED',
   'DATA'),
  ('setuptools-57.4.0.dist-info\\WHEEL',
   'c:\\program '
   'files\\python310\\lib\\site-packages\\setuptools-57.4.0.dist-info\\WHEEL',
   'DATA'),
  ('pyinstaller-4.10.dist-info\\COPYING.txt',
   'c:\\users\\prova\\appdata\\roaming\\python\\python310\\site-packages\\pyinstaller-4.10.dist-info\\COPYING.txt',
   'DATA'),
  ('setuptools-57.4.0.dist-info\\INSTALLER',
   'c:\\program '
   'files\\python310\\lib\\site-packages\\setuptools-57.4.0.dist-info\\INSTALLER',
   'DATA'),
  ('altgraph-0.17.2.dist-info\\WHEEL',
   'c:\\program '
   'files\\python310\\lib\\site-packages\\altgraph-0.17.2.dist-info\\WHEEL',
   'DATA'),
  ('altgraph-0.17.2.dist-info\\RECORD',
   'c:\\program '
   'files\\python310\\lib\\site-packages\\altgraph-0.17.2.dist-info\\RECORD',
   'DATA'),
  ('altgraph-0.17.2.dist-info\\INSTALLER',
   'c:\\program '
   'files\\python310\\lib\\site-packages\\altgraph-0.17.2.dist-info\\INSTALLER',
   'DATA'),
  ('altgraph-0.17.2.dist-info\\top_level.txt',
   'c:\\program '
   'files\\python310\\lib\\site-packages\\altgraph-0.17.2.dist-info\\top_level.txt',
   'DATA'),
  ('setuptools-57.4.0.dist-info\\RECORD',
   'c:\\program '
   'files\\python310\\lib\\site-packages\\setuptools-57.4.0.dist-info\\RECORD',
   'DATA'),
  ('pyinstaller-4.10.dist-info\\METADATA',
   'c:\\users\\prova\\appdata\\roaming\\python\\python310\\site-packages\\pyinstaller-4.10.dist-info\\METADATA',
   'DATA'),
  ('setuptools-57.4.0.dist-info\\REQUESTED',
   'c:\\program '
   'files\\python310\\lib\\site-packages\\setuptools-57.4.0.dist-info\\REQUESTED',
   'DATA'),
  ('pyinstaller-4.10.dist-info\\WHEEL',
   'c:\\users\\prova\\appdata\\roaming\\python\\python310\\site-packages\\pyinstaller-4.10.dist-info\\WHEEL',
   'DATA'),
  ('immagini_pedine\\pedina_black.png',
   'F:\\quoridor_grafica\\immagini_pedine\\pedina_black.png',
   'DATA'),
  ('immagini_pedine\\pedina_blue.png',
   'F:\\quoridor_grafica\\immagini_pedine\\pedina_blue.png',
   'DATA'),
  ('immagini_pedine\\pedina_red.png',
   'F:\\quoridor_grafica\\immagini_pedine\\pedina_red.png',
   'DATA'),
  ('immagini_pedine\\pedina_cyan.png',
   'F:\\quoridor_grafica\\immagini_pedine\\pedina_cyan.png',
   'DATA'),
  ('immagini_pedine\\pedina_green.png',
   'F:\\quoridor_grafica\\immagini_pedine\\pedina_green.png',
   'DATA'),
  ('immagini_pedine\\pedina_magenta.png',
   'F:\\quoridor_grafica\\immagini_pedine\\pedina_magenta.png',
   'DATA')],
 False,
 False,
 False,
 [],
 None,
 None,
 None)
