('F:\\quoridor_grafica\\build\\Quoridor\\PYZ-00.pyz',
 [('multiprocessing.popen_spawn_posix',
   'C:\\Program Files\\Python310\\lib\\multiprocessing\\popen_spawn_posix.py',
   'PYMODULE'),
  ('multiprocessing.resource_tracker',
   'C:\\Program Files\\Python310\\lib\\multiprocessing\\resource_tracker.py',
   'PYMODULE'),
  ('threading', 'C:\\Program Files\\Python310\\lib\\threading.py', 'PYMODULE'),
  ('_threading_local',
   'C:\\Program Files\\Python310\\lib\\_threading_local.py',
   'PYMODULE'),
  ('contextlib',
   'C:\\Program Files\\Python310\\lib\\contextlib.py',
   'PYMODULE'),
  ('signal', 'C:\\Program Files\\Python310\\lib\\signal.py', 'PYMODULE'),
  ('multiprocessing.util',
   'C:\\Program Files\\Python310\\lib\\multiprocessing\\util.py',
   'PYMODULE'),
  ('multiprocessing.forkserver',
   'C:\\Program Files\\Python310\\lib\\multiprocessing\\forkserver.py',
   'PYMODULE'),
  ('multiprocessing.connection',
   'C:\\Program Files\\Python310\\lib\\multiprocessing\\connection.py',
   'PYMODULE'),
  ('multiprocessing.resource_sharer',
   'C:\\Program Files\\Python310\\lib\\multiprocessing\\resource_sharer.py',
   'PYMODULE'),
  ('xmlrpc.client',
   'C:\\Program Files\\Python310\\lib\\xmlrpc\\client.py',
   'PYMODULE'),
  ('xmlrpc',
   'C:\\Program Files\\Python310\\lib\\xmlrpc\\__init__.py',
   'PYMODULE'),
  ('gzip', 'C:\\Program Files\\Python310\\lib\\gzip.py', 'PYMODULE'),
  ('argparse', 'C:\\Program Files\\Python310\\lib\\argparse.py', 'PYMODULE'),
  ('textwrap', 'C:\\Program Files\\Python310\\lib\\textwrap.py', 'PYMODULE'),
  ('copy', 'C:\\Program Files\\Python310\\lib\\copy.py', 'PYMODULE'),
  ('gettext', 'C:\\Program Files\\Python310\\lib\\gettext.py', 'PYMODULE'),
  ('_compression',
   'C:\\Program Files\\Python310\\lib\\_compression.py',
   'PYMODULE'),
  ('xml.parsers.expat',
   'C:\\Program Files\\Python310\\lib\\xml\\parsers\\expat.py',
   'PYMODULE'),
  ('xml.parsers',
   'C:\\Program Files\\Python310\\lib\\xml\\parsers\\__init__.py',
   'PYMODULE'),
  ('xml', 'C:\\Program Files\\Python310\\lib\\xml\\__init__.py', 'PYMODULE'),
  ('xml.sax.expatreader',
   'C:\\Program Files\\Python310\\lib\\xml\\sax\\expatreader.py',
   'PYMODULE'),
  ('xml.sax.saxutils',
   'C:\\Program Files\\Python310\\lib\\xml\\sax\\saxutils.py',
   'PYMODULE'),
  ('urllib.request',
   'C:\\Program Files\\Python310\\lib\\urllib\\request.py',
   'PYMODULE'),
  ('fnmatch', 'C:\\Program Files\\Python310\\lib\\fnmatch.py', 'PYMODULE'),
  ('getpass', 'C:\\Program Files\\Python310\\lib\\getpass.py', 'PYMODULE'),
  ('nturl2path',
   'C:\\Program Files\\Python310\\lib\\nturl2path.py',
   'PYMODULE'),
  ('ftplib', 'C:\\Program Files\\Python310\\lib\\ftplib.py', 'PYMODULE'),
  ('netrc', 'C:\\Program Files\\Python310\\lib\\netrc.py', 'PYMODULE'),
  ('stat', 'C:\\Program Files\\Python310\\lib\\stat.py', 'PYMODULE'),
  ('shlex', 'C:\\Program Files\\Python310\\lib\\shlex.py', 'PYMODULE'),
  ('mimetypes', 'C:\\Program Files\\Python310\\lib\\mimetypes.py', 'PYMODULE'),
  ('getopt', 'C:\\Program Files\\Python310\\lib\\getopt.py', 'PYMODULE'),
  ('email.utils',
   'C:\\Program Files\\Python310\\lib\\email\\utils.py',
   'PYMODULE'),
  ('email.charset',
   'C:\\Program Files\\Python310\\lib\\email\\charset.py',
   'PYMODULE'),
  ('email.encoders',
   'C:\\Program Files\\Python310\\lib\\email\\encoders.py',
   'PYMODULE'),
  ('quopri', 'C:\\Program Files\\Python310\\lib\\quopri.py', 'PYMODULE'),
  ('email.errors',
   'C:\\Program Files\\Python310\\lib\\email\\errors.py',
   'PYMODULE'),
  ('email.quoprimime',
   'C:\\Program Files\\Python310\\lib\\email\\quoprimime.py',
   'PYMODULE'),
  ('email.base64mime',
   'C:\\Program Files\\Python310\\lib\\email\\base64mime.py',
   'PYMODULE'),
  ('email._parseaddr',
   'C:\\Program Files\\Python310\\lib\\email\\_parseaddr.py',
   'PYMODULE'),
  ('calendar', 'C:\\Program Files\\Python310\\lib\\calendar.py', 'PYMODULE'),
  ('http.cookiejar',
   'C:\\Program Files\\Python310\\lib\\http\\cookiejar.py',
   'PYMODULE'),
  ('http', 'C:\\Program Files\\Python310\\lib\\http\\__init__.py', 'PYMODULE'),
  ('urllib',
   'C:\\Program Files\\Python310\\lib\\urllib\\__init__.py',
   'PYMODULE'),
  ('ssl', 'C:\\Program Files\\Python310\\lib\\ssl.py', 'PYMODULE'),
  ('urllib.response',
   'C:\\Program Files\\Python310\\lib\\urllib\\response.py',
   'PYMODULE'),
  ('urllib.error',
   'C:\\Program Files\\Python310\\lib\\urllib\\error.py',
   'PYMODULE'),
  ('string', 'C:\\Program Files\\Python310\\lib\\string.py', 'PYMODULE'),
  ('posixpath', 'C:\\Program Files\\Python310\\lib\\posixpath.py', 'PYMODULE'),
  ('genericpath',
   'C:\\Program Files\\Python310\\lib\\genericpath.py',
   'PYMODULE'),
  ('hashlib', 'C:\\Program Files\\Python310\\lib\\hashlib.py', 'PYMODULE'),
  ('email',
   'C:\\Program Files\\Python310\\lib\\email\\__init__.py',
   'PYMODULE'),
  ('email.parser',
   'C:\\Program Files\\Python310\\lib\\email\\parser.py',
   'PYMODULE'),
  ('email._policybase',
   'C:\\Program Files\\Python310\\lib\\email\\_policybase.py',
   'PYMODULE'),
  ('email.feedparser',
   'C:\\Program Files\\Python310\\lib\\email\\feedparser.py',
   'PYMODULE'),
  ('email.message',
   'C:\\Program Files\\Python310\\lib\\email\\message.py',
   'PYMODULE'),
  ('email.policy',
   'C:\\Program Files\\Python310\\lib\\email\\policy.py',
   'PYMODULE'),
  ('email.contentmanager',
   'C:\\Program Files\\Python310\\lib\\email\\contentmanager.py',
   'PYMODULE'),
  ('email.headerregistry',
   'C:\\Program Files\\Python310\\lib\\email\\headerregistry.py',
   'PYMODULE'),
  ('email.iterators',
   'C:\\Program Files\\Python310\\lib\\email\\iterators.py',
   'PYMODULE'),
  ('email.generator',
   'C:\\Program Files\\Python310\\lib\\email\\generator.py',
   'PYMODULE'),
  ('email._encoded_words',
   'C:\\Program Files\\Python310\\lib\\email\\_encoded_words.py',
   'PYMODULE'),
  ('uu', 'C:\\Program Files\\Python310\\lib\\uu.py', 'PYMODULE'),
  ('optparse', 'C:\\Program Files\\Python310\\lib\\optparse.py', 'PYMODULE'),
  ('email._header_value_parser',
   'C:\\Program Files\\Python310\\lib\\email\\_header_value_parser.py',
   'PYMODULE'),
  ('email.header',
   'C:\\Program Files\\Python310\\lib\\email\\header.py',
   'PYMODULE'),
  ('bisect', 'C:\\Program Files\\Python310\\lib\\bisect.py', 'PYMODULE'),
  ('xml.sax',
   'C:\\Program Files\\Python310\\lib\\xml\\sax\\__init__.py',
   'PYMODULE'),
  ('xml.sax.handler',
   'C:\\Program Files\\Python310\\lib\\xml\\sax\\handler.py',
   'PYMODULE'),
  ('xml.sax._exceptions',
   'C:\\Program Files\\Python310\\lib\\xml\\sax\\_exceptions.py',
   'PYMODULE'),
  ('xml.sax.xmlreader',
   'C:\\Program Files\\Python310\\lib\\xml\\sax\\xmlreader.py',
   'PYMODULE'),
  ('urllib.parse',
   'C:\\Program Files\\Python310\\lib\\urllib\\parse.py',
   'PYMODULE'),
  ('http.client',
   'C:\\Program Files\\Python310\\lib\\http\\client.py',
   'PYMODULE'),
  ('decimal', 'C:\\Program Files\\Python310\\lib\\decimal.py', 'PYMODULE'),
  ('_pydecimal',
   'C:\\Program Files\\Python310\\lib\\_pydecimal.py',
   'PYMODULE'),
  ('contextvars',
   'C:\\Program Files\\Python310\\lib\\contextvars.py',
   'PYMODULE'),
  ('numbers', 'C:\\Program Files\\Python310\\lib\\numbers.py', 'PYMODULE'),
  ('datetime', 'C:\\Program Files\\Python310\\lib\\datetime.py', 'PYMODULE'),
  ('_strptime', 'C:\\Program Files\\Python310\\lib\\_strptime.py', 'PYMODULE'),
  ('base64', 'C:\\Program Files\\Python310\\lib\\base64.py', 'PYMODULE'),
  ('hmac', 'C:\\Program Files\\Python310\\lib\\hmac.py', 'PYMODULE'),
  ('struct', 'C:\\Program Files\\Python310\\lib\\struct.py', 'PYMODULE'),
  ('socket', 'C:\\Program Files\\Python310\\lib\\socket.py', 'PYMODULE'),
  ('selectors', 'C:\\Program Files\\Python310\\lib\\selectors.py', 'PYMODULE'),
  ('tempfile', 'C:\\Program Files\\Python310\\lib\\tempfile.py', 'PYMODULE'),
  ('shutil', 'C:\\Program Files\\Python310\\lib\\shutil.py', 'PYMODULE'),
  ('zipfile', 'C:\\Program Files\\Python310\\lib\\zipfile.py', 'PYMODULE'),
  ('py_compile',
   'C:\\Program Files\\Python310\\lib\\py_compile.py',
   'PYMODULE'),
  ('ntpath', 'C:\\Program Files\\Python310\\lib\\ntpath.py', 'PYMODULE'),
  ('importlib.machinery',
   'C:\\Program Files\\Python310\\lib\\importlib\\machinery.py',
   'PYMODULE'),
  ('importlib',
   'C:\\Program Files\\Python310\\lib\\importlib\\__init__.py',
   'PYMODULE'),
  ('importlib.abc',
   'C:\\Program Files\\Python310\\lib\\importlib\\abc.py',
   'PYMODULE'),
  ('importlib._abc',
   'C:\\Program Files\\Python310\\lib\\importlib\\_abc.py',
   'PYMODULE'),
  ('importlib._bootstrap',
   'C:\\Program Files\\Python310\\lib\\importlib\\_bootstrap.py',
   'PYMODULE'),
  ('importlib._bootstrap_external',
   'C:\\Program Files\\Python310\\lib\\importlib\\_bootstrap_external.py',
   'PYMODULE'),
  ('importlib.metadata',
   'C:\\Program Files\\Python310\\lib\\importlib\\metadata\\__init__.py',
   'PYMODULE'),
  ('importlib.metadata._itertools',
   'C:\\Program Files\\Python310\\lib\\importlib\\metadata\\_itertools.py',
   'PYMODULE'),
  ('importlib.metadata._functools',
   'C:\\Program Files\\Python310\\lib\\importlib\\metadata\\_functools.py',
   'PYMODULE'),
  ('importlib.metadata._collections',
   'C:\\Program Files\\Python310\\lib\\importlib\\metadata\\_collections.py',
   'PYMODULE'),
  ('importlib.metadata._meta',
   'C:\\Program Files\\Python310\\lib\\importlib\\metadata\\_meta.py',
   'PYMODULE'),
  ('importlib.metadata._adapters',
   'C:\\Program Files\\Python310\\lib\\importlib\\metadata\\_adapters.py',
   'PYMODULE'),
  ('importlib.metadata._text',
   'C:\\Program Files\\Python310\\lib\\importlib\\metadata\\_text.py',
   'PYMODULE'),
  ('csv', 'C:\\Program Files\\Python310\\lib\\csv.py', 'PYMODULE'),
  ('importlib.readers',
   'C:\\Program Files\\Python310\\lib\\importlib\\readers.py',
   'PYMODULE'),
  ('pathlib', 'C:\\Program Files\\Python310\\lib\\pathlib.py', 'PYMODULE'),
  ('importlib.util',
   'C:\\Program Files\\Python310\\lib\\importlib\\util.py',
   'PYMODULE'),
  ('tarfile', 'C:\\Program Files\\Python310\\lib\\tarfile.py', 'PYMODULE'),
  ('lzma', 'C:\\Program Files\\Python310\\lib\\lzma.py', 'PYMODULE'),
  ('bz2', 'C:\\Program Files\\Python310\\lib\\bz2.py', 'PYMODULE'),
  ('logging',
   'C:\\Program Files\\Python310\\lib\\logging\\__init__.py',
   'PYMODULE'),
  ('pickle', 'C:\\Program Files\\Python310\\lib\\pickle.py', 'PYMODULE'),
  ('pprint', 'C:\\Program Files\\Python310\\lib\\pprint.py', 'PYMODULE'),
  ('dataclasses',
   'C:\\Program Files\\Python310\\lib\\dataclasses.py',
   'PYMODULE'),
  ('inspect', 'C:\\Program Files\\Python310\\lib\\inspect.py', 'PYMODULE'),
  ('token', 'C:\\Program Files\\Python310\\lib\\token.py', 'PYMODULE'),
  ('dis', 'C:\\Program Files\\Python310\\lib\\dis.py', 'PYMODULE'),
  ('opcode', 'C:\\Program Files\\Python310\\lib\\opcode.py', 'PYMODULE'),
  ('ast', 'C:\\Program Files\\Python310\\lib\\ast.py', 'PYMODULE'),
  ('doctest', 'C:\\Program Files\\Python310\\lib\\doctest.py', 'PYMODULE'),
  ('unittest',
   'C:\\Program Files\\Python310\\lib\\unittest\\__init__.py',
   'PYMODULE'),
  ('unittest.async_case',
   'C:\\Program Files\\Python310\\lib\\unittest\\async_case.py',
   'PYMODULE'),
  ('asyncio',
   'C:\\Program Files\\Python310\\lib\\asyncio\\__init__.py',
   'PYMODULE'),
  ('asyncio.unix_events',
   'C:\\Program Files\\Python310\\lib\\asyncio\\unix_events.py',
   'PYMODULE'),
  ('asyncio.log',
   'C:\\Program Files\\Python310\\lib\\asyncio\\log.py',
   'PYMODULE'),
  ('asyncio.windows_events',
   'C:\\Program Files\\Python310\\lib\\asyncio\\windows_events.py',
   'PYMODULE'),
  ('asyncio.windows_utils',
   'C:\\Program Files\\Python310\\lib\\asyncio\\windows_utils.py',
   'PYMODULE'),
  ('asyncio.selector_events',
   'C:\\Program Files\\Python310\\lib\\asyncio\\selector_events.py',
   'PYMODULE'),
  ('asyncio.proactor_events',
   'C:\\Program Files\\Python310\\lib\\asyncio\\proactor_events.py',
   'PYMODULE'),
  ('asyncio.base_subprocess',
   'C:\\Program Files\\Python310\\lib\\asyncio\\base_subprocess.py',
   'PYMODULE'),
  ('asyncio.threads',
   'C:\\Program Files\\Python310\\lib\\asyncio\\threads.py',
   'PYMODULE'),
  ('asyncio.subprocess',
   'C:\\Program Files\\Python310\\lib\\asyncio\\subprocess.py',
   'PYMODULE'),
  ('asyncio.streams',
   'C:\\Program Files\\Python310\\lib\\asyncio\\streams.py',
   'PYMODULE'),
  ('asyncio.queues',
   'C:\\Program Files\\Python310\\lib\\asyncio\\queues.py',
   'PYMODULE'),
  ('asyncio.runners',
   'C:\\Program Files\\Python310\\lib\\asyncio\\runners.py',
   'PYMODULE'),
  ('asyncio.events',
   'C:\\Program Files\\Python310\\lib\\asyncio\\events.py',
   'PYMODULE'),
  ('asyncio.base_events',
   'C:\\Program Files\\Python310\\lib\\asyncio\\base_events.py',
   'PYMODULE'),
  ('concurrent.futures',
   'C:\\Program Files\\Python310\\lib\\concurrent\\futures\\__init__.py',
   'PYMODULE'),
  ('concurrent.futures.thread',
   'C:\\Program Files\\Python310\\lib\\concurrent\\futures\\thread.py',
   'PYMODULE'),
  ('queue', 'C:\\Program Files\\Python310\\lib\\queue.py', 'PYMODULE'),
  ('concurrent.futures.process',
   'C:\\Program Files\\Python310\\lib\\concurrent\\futures\\process.py',
   'PYMODULE'),
  ('multiprocessing.synchronize',
   'C:\\Program Files\\Python310\\lib\\multiprocessing\\synchronize.py',
   'PYMODULE'),
  ('multiprocessing.heap',
   'C:\\Program Files\\Python310\\lib\\multiprocessing\\heap.py',
   'PYMODULE'),
  ('multiprocessing.queues',
   'C:\\Program Files\\Python310\\lib\\multiprocessing\\queues.py',
   'PYMODULE'),
  ('concurrent.futures._base',
   'C:\\Program Files\\Python310\\lib\\concurrent\\futures\\_base.py',
   'PYMODULE'),
  ('concurrent',
   'C:\\Program Files\\Python310\\lib\\concurrent\\__init__.py',
   'PYMODULE'),
  ('asyncio.trsock',
   'C:\\Program Files\\Python310\\lib\\asyncio\\trsock.py',
   'PYMODULE'),
  ('asyncio.staggered',
   'C:\\Program Files\\Python310\\lib\\asyncio\\staggered.py',
   'PYMODULE'),
  ('asyncio.tasks',
   'C:\\Program Files\\Python310\\lib\\asyncio\\tasks.py',
   'PYMODULE'),
  ('asyncio.base_tasks',
   'C:\\Program Files\\Python310\\lib\\asyncio\\base_tasks.py',
   'PYMODULE'),
  ('asyncio.locks',
   'C:\\Program Files\\Python310\\lib\\asyncio\\locks.py',
   'PYMODULE'),
  ('asyncio.mixins',
   'C:\\Program Files\\Python310\\lib\\asyncio\\mixins.py',
   'PYMODULE'),
  ('asyncio.sslproto',
   'C:\\Program Files\\Python310\\lib\\asyncio\\sslproto.py',
   'PYMODULE'),
  ('asyncio.transports',
   'C:\\Program Files\\Python310\\lib\\asyncio\\transports.py',
   'PYMODULE'),
  ('asyncio.protocols',
   'C:\\Program Files\\Python310\\lib\\asyncio\\protocols.py',
   'PYMODULE'),
  ('asyncio.futures',
   'C:\\Program Files\\Python310\\lib\\asyncio\\futures.py',
   'PYMODULE'),
  ('asyncio.exceptions',
   'C:\\Program Files\\Python310\\lib\\asyncio\\exceptions.py',
   'PYMODULE'),
  ('asyncio.coroutines',
   'C:\\Program Files\\Python310\\lib\\asyncio\\coroutines.py',
   'PYMODULE'),
  ('asyncio.base_futures',
   'C:\\Program Files\\Python310\\lib\\asyncio\\base_futures.py',
   'PYMODULE'),
  ('asyncio.format_helpers',
   'C:\\Program Files\\Python310\\lib\\asyncio\\format_helpers.py',
   'PYMODULE'),
  ('asyncio.constants',
   'C:\\Program Files\\Python310\\lib\\asyncio\\constants.py',
   'PYMODULE'),
  ('unittest.signals',
   'C:\\Program Files\\Python310\\lib\\unittest\\signals.py',
   'PYMODULE'),
  ('unittest.main',
   'C:\\Program Files\\Python310\\lib\\unittest\\main.py',
   'PYMODULE'),
  ('unittest.runner',
   'C:\\Program Files\\Python310\\lib\\unittest\\runner.py',
   'PYMODULE'),
  ('unittest.loader',
   'C:\\Program Files\\Python310\\lib\\unittest\\loader.py',
   'PYMODULE'),
  ('unittest.suite',
   'C:\\Program Files\\Python310\\lib\\unittest\\suite.py',
   'PYMODULE'),
  ('unittest.case',
   'C:\\Program Files\\Python310\\lib\\unittest\\case.py',
   'PYMODULE'),
  ('unittest._log',
   'C:\\Program Files\\Python310\\lib\\unittest\\_log.py',
   'PYMODULE'),
  ('unittest.result',
   'C:\\Program Files\\Python310\\lib\\unittest\\result.py',
   'PYMODULE'),
  ('unittest.util',
   'C:\\Program Files\\Python310\\lib\\unittest\\util.py',
   'PYMODULE'),
  ('pdb', 'C:\\Program Files\\Python310\\lib\\pdb.py', 'PYMODULE'),
  ('pydoc', 'C:\\Program Files\\Python310\\lib\\pydoc.py', 'PYMODULE'),
  ('webbrowser',
   'C:\\Program Files\\Python310\\lib\\webbrowser.py',
   'PYMODULE'),
  ('http.server',
   'C:\\Program Files\\Python310\\lib\\http\\server.py',
   'PYMODULE'),
  ('socketserver',
   'C:\\Program Files\\Python310\\lib\\socketserver.py',
   'PYMODULE'),
  ('html', 'C:\\Program Files\\Python310\\lib\\html\\__init__.py', 'PYMODULE'),
  ('html.entities',
   'C:\\Program Files\\Python310\\lib\\html\\entities.py',
   'PYMODULE'),
  ('pydoc_data.topics',
   'C:\\Program Files\\Python310\\lib\\pydoc_data\\topics.py',
   'PYMODULE'),
  ('pydoc_data',
   'C:\\Program Files\\Python310\\lib\\pydoc_data\\__init__.py',
   'PYMODULE'),
  ('tty', 'C:\\Program Files\\Python310\\lib\\tty.py', 'PYMODULE'),
  ('sysconfig', 'C:\\Program Files\\Python310\\lib\\sysconfig.py', 'PYMODULE'),
  ('_aix_support',
   'C:\\Program Files\\Python310\\lib\\_aix_support.py',
   'PYMODULE'),
  ('_bootsubprocess',
   'C:\\Program Files\\Python310\\lib\\_bootsubprocess.py',
   'PYMODULE'),
  ('_osx_support',
   'C:\\Program Files\\Python310\\lib\\_osx_support.py',
   'PYMODULE'),
  ('platform', 'C:\\Program Files\\Python310\\lib\\platform.py', 'PYMODULE'),
  ('plistlib', 'C:\\Program Files\\Python310\\lib\\plistlib.py', 'PYMODULE'),
  ('pkgutil', 'C:\\Program Files\\Python310\\lib\\pkgutil.py', 'PYMODULE'),
  ('zipimport', 'C:\\Program Files\\Python310\\lib\\zipimport.py', 'PYMODULE'),
  ('runpy', 'C:\\Program Files\\Python310\\lib\\runpy.py', 'PYMODULE'),
  ('glob', 'C:\\Program Files\\Python310\\lib\\glob.py', 'PYMODULE'),
  ('code', 'C:\\Program Files\\Python310\\lib\\code.py', 'PYMODULE'),
  ('codeop', 'C:\\Program Files\\Python310\\lib\\codeop.py', 'PYMODULE'),
  ('bdb', 'C:\\Program Files\\Python310\\lib\\bdb.py', 'PYMODULE'),
  ('cmd', 'C:\\Program Files\\Python310\\lib\\cmd.py', 'PYMODULE'),
  ('difflib', 'C:\\Program Files\\Python310\\lib\\difflib.py', 'PYMODULE'),
  ('__future__',
   'C:\\Program Files\\Python310\\lib\\__future__.py',
   'PYMODULE'),
  ('_compat_pickle',
   'C:\\Program Files\\Python310\\lib\\_compat_pickle.py',
   'PYMODULE'),
  ('multiprocessing.process',
   'C:\\Program Files\\Python310\\lib\\multiprocessing\\process.py',
   'PYMODULE'),
  ('multiprocessing.context',
   'C:\\Program Files\\Python310\\lib\\multiprocessing\\context.py',
   'PYMODULE'),
  ('multiprocessing.popen_forkserver',
   'C:\\Program Files\\Python310\\lib\\multiprocessing\\popen_forkserver.py',
   'PYMODULE'),
  ('multiprocessing.sharedctypes',
   'C:\\Program Files\\Python310\\lib\\multiprocessing\\sharedctypes.py',
   'PYMODULE'),
  ('ctypes',
   'C:\\Program Files\\Python310\\lib\\ctypes\\__init__.py',
   'PYMODULE'),
  ('ctypes._endian',
   'C:\\Program Files\\Python310\\lib\\ctypes\\_endian.py',
   'PYMODULE'),
  ('multiprocessing.pool',
   'C:\\Program Files\\Python310\\lib\\multiprocessing\\pool.py',
   'PYMODULE'),
  ('multiprocessing.dummy',
   'C:\\Program Files\\Python310\\lib\\multiprocessing\\dummy\\__init__.py',
   'PYMODULE'),
  ('multiprocessing.dummy.connection',
   'C:\\Program Files\\Python310\\lib\\multiprocessing\\dummy\\connection.py',
   'PYMODULE'),
  ('multiprocessing.managers',
   'C:\\Program Files\\Python310\\lib\\multiprocessing\\managers.py',
   'PYMODULE'),
  ('multiprocessing.shared_memory',
   'C:\\Program Files\\Python310\\lib\\multiprocessing\\shared_memory.py',
   'PYMODULE'),
  ('secrets', 'C:\\Program Files\\Python310\\lib\\secrets.py', 'PYMODULE'),
  ('multiprocessing.reduction',
   'C:\\Program Files\\Python310\\lib\\multiprocessing\\reduction.py',
   'PYMODULE'),
  ('multiprocessing.popen_fork',
   'C:\\Program Files\\Python310\\lib\\multiprocessing\\popen_fork.py',
   'PYMODULE'),
  ('multiprocessing.popen_spawn_win32',
   'C:\\Program Files\\Python310\\lib\\multiprocessing\\popen_spawn_win32.py',
   'PYMODULE'),
  ('subprocess',
   'C:\\Program Files\\Python310\\lib\\subprocess.py',
   'PYMODULE'),
  ('multiprocessing.spawn',
   'C:\\Program Files\\Python310\\lib\\multiprocessing\\spawn.py',
   'PYMODULE'),
  ('multiprocessing',
   'C:\\Program Files\\Python310\\lib\\multiprocessing\\__init__.py',
   'PYMODULE'),
  ('moduli.ThreadGrafica',
   'F:\\quoridor_grafica\\moduli\\ThreadGrafica.py',
   'PYMODULE'),
  ('moduli', '-', 'PYMODULE'),
  ('moduli.Schema', 'F:\\quoridor_grafica\\moduli\\Schema.py', 'PYMODULE'),
  ('moduli.Partita', 'F:\\quoridor_grafica\\moduli\\Partita.py', 'PYMODULE'),
  ('moduli.Mossa', 'F:\\quoridor_grafica\\moduli\\Mossa.py', 'PYMODULE'),
  ('moduli.GraficaQuoridor',
   'F:\\quoridor_grafica\\moduli\\GraficaQuoridor.py',
   'PYMODULE'),
  ('moduli.Giocatore',
   'F:\\quoridor_grafica\\moduli\\Giocatore.py',
   'PYMODULE'),
  ('moduli.EsitoSimulazioneMosse',
   'F:\\quoridor_grafica\\moduli\\EsitoSimulazioneMosse.py',
   'PYMODULE'),
  ('termcolor',
   'C:\\Users\\prova\\AppData\\Roaming\\Python\\Python310\\site-packages\\termcolor.py',
   'PYMODULE'),
  ('numpy',
   'C:\\Users\\prova\\AppData\\Roaming\\Python\\Python310\\site-packages\\numpy\\__init__.py',
   'PYMODULE'),
  ('numpy.core._dtype_ctypes',
   'C:\\Users\\prova\\AppData\\Roaming\\Python\\Python310\\site-packages\\numpy\\core\\_dtype_ctypes.py',
   'PYMODULE'),
  ('numpy.version',
   'C:\\Users\\prova\\AppData\\Roaming\\Python\\Python310\\site-packages\\numpy\\version.py',
   'PYMODULE'),
  ('numpy._version',
   'C:\\Users\\prova\\AppData\\Roaming\\Python\\Python310\\site-packages\\numpy\\_version.py',
   'PYMODULE'),
  ('json', 'C:\\Program Files\\Python310\\lib\\json\\__init__.py', 'PYMODULE'),
  ('json.encoder',
   'C:\\Program Files\\Python310\\lib\\json\\encoder.py',
   'PYMODULE'),
  ('json.decoder',
   'C:\\Program Files\\Python310\\lib\\json\\decoder.py',
   'PYMODULE'),
  ('json.scanner',
   'C:\\Program Files\\Python310\\lib\\json\\scanner.py',
   'PYMODULE'),
  ('numpy._pytesttester',
   'C:\\Users\\prova\\AppData\\Roaming\\Python\\Python310\\site-packages\\numpy\\_pytesttester.py',
   'PYMODULE'),
  ('numpy.distutils.cpuinfo',
   'C:\\Users\\prova\\AppData\\Roaming\\Python\\Python310\\site-packages\\numpy\\distutils\\cpuinfo.py',
   'PYMODULE'),
  ('numpy.distutils',
   'C:\\Users\\prova\\AppData\\Roaming\\Python\\Python310\\site-packages\\numpy\\distutils\\__init__.py',
   'PYMODULE'),
  ('numpy.distutils.fcompiler',
   'C:\\Users\\prova\\AppData\\Roaming\\Python\\Python310\\site-packages\\numpy\\distutils\\fcompiler\\__init__.py',
   'PYMODULE'),
  ('numpy.distutils.command.config_compiler',
   'C:\\Users\\prova\\AppData\\Roaming\\Python\\Python310\\site-packages\\numpy\\distutils\\command\\config_compiler.py',
   'PYMODULE'),
  ('numpy.distutils.command',
   'C:\\Users\\prova\\AppData\\Roaming\\Python\\Python310\\site-packages\\numpy\\distutils\\command\\__init__.py',
   'PYMODULE'),
  ('numpy.distutils.command.egg_info',
   'C:\\Users\\prova\\AppData\\Roaming\\Python\\Python310\\site-packages\\numpy\\distutils\\command\\egg_info.py',
   'PYMODULE'),
  ('numpy.distutils.command.develop',
   'C:\\Users\\prova\\AppData\\Roaming\\Python\\Python310\\site-packages\\numpy\\distutils\\command\\develop.py',
   'PYMODULE'),
  ('numpy.distutils.command.install_clib',
   'C:\\Users\\prova\\AppData\\Roaming\\Python\\Python310\\site-packages\\numpy\\distutils\\command\\install_clib.py',
   'PYMODULE'),
  ('distutils.ccompiler',
   'C:\\Program Files\\Python310\\lib\\distutils\\ccompiler.py',
   'PYMODULE'),
  ('distutils.debug',
   'C:\\Program Files\\Python310\\lib\\distutils\\debug.py',
   'PYMODULE'),
  ('distutils.log',
   'C:\\Program Files\\Python310\\lib\\distutils\\log.py',
   'PYMODULE'),
  ('distutils',
   'C:\\Program Files\\Python310\\lib\\distutils\\__init__.py',
   'PYMODULE'),
  ('distutils.archive_util',
   'C:\\Program Files\\Python310\\lib\\distutils\\archive_util.py',
   'PYMODULE'),
  ('distutils.dep_util',
   'C:\\Program Files\\Python310\\lib\\distutils\\dep_util.py',
   'PYMODULE'),
  ('distutils.dir_util',
   'C:\\Program Files\\Python310\\lib\\distutils\\dir_util.py',
   'PYMODULE'),
  ('distutils.file_util',
   'C:\\Program Files\\Python310\\lib\\distutils\\file_util.py',
   'PYMODULE'),
  ('distutils.spawn',
   'C:\\Program Files\\Python310\\lib\\distutils\\spawn.py',
   'PYMODULE'),
  ('numpy.distutils.command.bdist_rpm',
   'C:\\Users\\prova\\AppData\\Roaming\\Python\\Python310\\site-packages\\numpy\\distutils\\command\\bdist_rpm.py',
   'PYMODULE'),
  ('distutils.command.bdist_rpm',
   'C:\\Program Files\\Python310\\lib\\distutils\\command\\bdist_rpm.py',
   'PYMODULE'),
  ('distutils.command',
   'C:\\Program Files\\Python310\\lib\\distutils\\command\\__init__.py',
   'PYMODULE'),
  ('numpy.distutils.command.install',
   'C:\\Users\\prova\\AppData\\Roaming\\Python\\Python310\\site-packages\\numpy\\distutils\\command\\install.py',
   'PYMODULE'),
  ('distutils.command.install',
   'C:\\Program Files\\Python310\\lib\\distutils\\command\\install.py',
   'PYMODULE'),
  ('site',
   'C:\\Users\\prova\\AppData\\Roaming\\Python\\Python310\\site-packages\\PyInstaller\\fake-modules\\site.py',
   'PYMODULE'),
  ('numpy.distutils.command.install_headers',
   'C:\\Users\\prova\\AppData\\Roaming\\Python\\Python310\\site-packages\\numpy\\distutils\\command\\install_headers.py',
   'PYMODULE'),
  ('distutils.command.install_headers',
   'C:\\Program Files\\Python310\\lib\\distutils\\command\\install_headers.py',
   'PYMODULE'),
  ('numpy.distutils.command.install_data',
   'C:\\Users\\prova\\AppData\\Roaming\\Python\\Python310\\site-packages\\numpy\\distutils\\command\\install_data.py',
   'PYMODULE'),
  ('distutils.command.install_data',
   'C:\\Program Files\\Python310\\lib\\distutils\\command\\install_data.py',
   'PYMODULE'),
  ('numpy.distutils.command.sdist',
   'C:\\Users\\prova\\AppData\\Roaming\\Python\\Python310\\site-packages\\numpy\\distutils\\command\\sdist.py',
   'PYMODULE'),
  ('distutils.command.sdist',
   'C:\\Program Files\\Python310\\lib\\distutils\\command\\sdist.py',
   'PYMODULE'),
  ('distutils.filelist',
   'C:\\Program Files\\Python310\\lib\\distutils\\filelist.py',
   'PYMODULE'),
  ('distutils.text_file',
   'C:\\Program Files\\Python310\\lib\\distutils\\text_file.py',
   'PYMODULE'),
  ('numpy.distutils.command.build_scripts',
   'C:\\Users\\prova\\AppData\\Roaming\\Python\\Python310\\site-packages\\numpy\\distutils\\command\\build_scripts.py',
   'PYMODULE'),
  ('distutils.command.build_scripts',
   'C:\\Program Files\\Python310\\lib\\distutils\\command\\build_scripts.py',
   'PYMODULE'),
  ('numpy.distutils.command.build_clib',
   'C:\\Users\\prova\\AppData\\Roaming\\Python\\Python310\\site-packages\\numpy\\distutils\\command\\build_clib.py',
   'PYMODULE'),
  ('numpy.distutils.ccompiler_opt',
   'C:\\Users\\prova\\AppData\\Roaming\\Python\\Python310\\site-packages\\numpy\\distutils\\ccompiler_opt.py',
   'PYMODULE'),
  ('distutils.command.build_clib',
   'C:\\Program Files\\Python310\\lib\\distutils\\command\\build_clib.py',
   'PYMODULE'),
  ('numpy.distutils.command.build_ext',
   'C:\\Users\\prova\\AppData\\Roaming\\Python\\Python310\\site-packages\\numpy\\distutils\\command\\build_ext.py',
   'PYMODULE'),
  ('numpy.distutils.system_info',
   'C:\\Users\\prova\\AppData\\Roaming\\Python\\Python310\\site-packages\\numpy\\distutils\\system_info.py',
   'PYMODULE'),
  ('configparser',
   'C:\\Program Files\\Python310\\lib\\configparser.py',
   'PYMODULE'),
  ('distutils.command.build_ext',
   'C:\\Program Files\\Python310\\lib\\distutils\\command\\build_ext.py',
   'PYMODULE'),
  ('distutils._msvccompiler',
   'C:\\Program Files\\Python310\\lib\\distutils\\_msvccompiler.py',
   'PYMODULE'),
  ('distutils.extension',
   'C:\\Program Files\\Python310\\lib\\distutils\\extension.py',
   'PYMODULE'),
  ('numpy.distutils.command.build_py',
   'C:\\Users\\prova\\AppData\\Roaming\\Python\\Python310\\site-packages\\numpy\\distutils\\command\\build_py.py',
   'PYMODULE'),
  ('distutils.command.build_py',
   'C:\\Program Files\\Python310\\lib\\distutils\\command\\build_py.py',
   'PYMODULE'),
  ('numpy.distutils.command.build',
   'C:\\Users\\prova\\AppData\\Roaming\\Python\\Python310\\site-packages\\numpy\\distutils\\command\\build.py',
   'PYMODULE'),
  ('distutils.command.build',
   'C:\\Program Files\\Python310\\lib\\distutils\\command\\build.py',
   'PYMODULE'),
  ('numpy.distutils.command.config',
   'C:\\Users\\prova\\AppData\\Roaming\\Python\\Python310\\site-packages\\numpy\\distutils\\command\\config.py',
   'PYMODULE'),
  ('distutils.msvc9compiler',
   'C:\\Program Files\\Python310\\lib\\distutils\\msvc9compiler.py',
   'PYMODULE'),
  ('numpy.distutils.command.autodist',
   'C:\\Users\\prova\\AppData\\Roaming\\Python\\Python310\\site-packages\\numpy\\distutils\\command\\autodist.py',
   'PYMODULE'),
  ('numpy.distutils.mingw32ccompiler',
   'C:\\Users\\prova\\AppData\\Roaming\\Python\\Python310\\site-packages\\numpy\\distutils\\mingw32ccompiler.py',
   'PYMODULE'),
  ('distutils.msvccompiler',
   'C:\\Program Files\\Python310\\lib\\distutils\\msvccompiler.py',
   'PYMODULE'),
  ('distutils.unixccompiler',
   'C:\\Program Files\\Python310\\lib\\distutils\\unixccompiler.py',
   'PYMODULE'),
  ('distutils.cygwinccompiler',
   'C:\\Program Files\\Python310\\lib\\distutils\\cygwinccompiler.py',
   'PYMODULE'),
  ('distutils.version',
   'C:\\Program Files\\Python310\\lib\\distutils\\version.py',
   'PYMODULE'),
  ('distutils.command.config',
   'C:\\Program Files\\Python310\\lib\\distutils\\command\\config.py',
   'PYMODULE'),
  ('distutils.core',
   'C:\\Program Files\\Python310\\lib\\distutils\\core.py',
   'PYMODULE'),
  ('distutils.config',
   'C:\\Program Files\\Python310\\lib\\distutils\\config.py',
   'PYMODULE'),
  ('cgi', 'C:\\Program Files\\Python310\\lib\\cgi.py', 'PYMODULE'),
  ('distutils.cmd',
   'C:\\Program Files\\Python310\\lib\\distutils\\cmd.py',
   'PYMODULE'),
  ('distutils.dist',
   'C:\\Program Files\\Python310\\lib\\distutils\\dist.py',
   'PYMODULE'),
  ('distutils.versionpredicate',
   'C:\\Program Files\\Python310\\lib\\distutils\\versionpredicate.py',
   'PYMODULE'),
  ('numpy.distutils.core',
   'C:\\Users\\prova\\AppData\\Roaming\\Python\\Python310\\site-packages\\numpy\\distutils\\core.py',
   'PYMODULE'),
  ('numpy.distutils.command.build_src',
   'C:\\Users\\prova\\AppData\\Roaming\\Python\\Python310\\site-packages\\numpy\\distutils\\command\\build_src.py',
   'PYMODULE'),
  ('numpy.distutils.conv_template',
   'C:\\Users\\prova\\AppData\\Roaming\\Python\\Python310\\site-packages\\numpy\\distutils\\conv_template.py',
   'PYMODULE'),
  ('numpy.distutils.from_template',
   'C:\\Users\\prova\\AppData\\Roaming\\Python\\Python310\\site-packages\\numpy\\distutils\\from_template.py',
   'PYMODULE'),
  ('numpy.distutils.numpy_distribution',
   'C:\\Users\\prova\\AppData\\Roaming\\Python\\Python310\\site-packages\\numpy\\distutils\\numpy_distribution.py',
   'PYMODULE'),
  ('numpy.distutils.extension',
   'C:\\Users\\prova\\AppData\\Roaming\\Python\\Python310\\site-packages\\numpy\\distutils\\extension.py',
   'PYMODULE'),
  ('numpy.distutils.fcompiler.environment',
   'C:\\Users\\prova\\AppData\\Roaming\\Python\\Python310\\site-packages\\numpy\\distutils\\fcompiler\\environment.py',
   'PYMODULE'),
  ('numpy.distutils.exec_command',
   'C:\\Users\\prova\\AppData\\Roaming\\Python\\Python310\\site-packages\\numpy\\distutils\\exec_command.py',
   'PYMODULE'),
  ('numpy.distutils.misc_util',
   'C:\\Users\\prova\\AppData\\Roaming\\Python\\Python310\\site-packages\\numpy\\distutils\\misc_util.py',
   'PYMODULE'),
  ('curses',
   'C:\\Program Files\\Python310\\lib\\curses\\__init__.py',
   'PYMODULE'),
  ('curses.has_key',
   'C:\\Program Files\\Python310\\lib\\curses\\has_key.py',
   'PYMODULE'),
  ('distutils.util',
   'C:\\Program Files\\Python310\\lib\\distutils\\util.py',
   'PYMODULE'),
  ('distutils.errors',
   'C:\\Program Files\\Python310\\lib\\distutils\\errors.py',
   'PYMODULE'),
  ('distutils.fancy_getopt',
   'C:\\Program Files\\Python310\\lib\\distutils\\fancy_getopt.py',
   'PYMODULE'),
  ('distutils.sysconfig',
   'C:\\Program Files\\Python310\\lib\\distutils\\sysconfig.py',
   'PYMODULE'),
  ('numpy.distutils.__config__',
   'C:\\Users\\prova\\AppData\\Roaming\\Python\\Python310\\site-packages\\numpy\\distutils\\__config__.py',
   'PYMODULE'),
  ('numpy.distutils.npy_pkg_config',
   'C:\\Users\\prova\\AppData\\Roaming\\Python\\Python310\\site-packages\\numpy\\distutils\\npy_pkg_config.py',
   'PYMODULE'),
  ('numpy.distutils.unixccompiler',
   'C:\\Users\\prova\\AppData\\Roaming\\Python\\Python310\\site-packages\\numpy\\distutils\\unixccompiler.py',
   'PYMODULE'),
  ('numpy.distutils.ccompiler',
   'C:\\Users\\prova\\AppData\\Roaming\\Python\\Python310\\site-packages\\numpy\\distutils\\ccompiler.py',
   'PYMODULE'),
  ('numpy.distutils._shell_utils',
   'C:\\Users\\prova\\AppData\\Roaming\\Python\\Python310\\site-packages\\numpy\\distutils\\_shell_utils.py',
   'PYMODULE'),
  ('pipes', 'C:\\Program Files\\Python310\\lib\\pipes.py', 'PYMODULE'),
  ('numpy.distutils.lib2def',
   'C:\\Users\\prova\\AppData\\Roaming\\Python\\Python310\\site-packages\\numpy\\distutils\\lib2def.py',
   'PYMODULE'),
  ('numpy.distutils.log',
   'C:\\Users\\prova\\AppData\\Roaming\\Python\\Python310\\site-packages\\numpy\\distutils\\log.py',
   'PYMODULE'),
  ('numpy.testing',
   'C:\\Users\\prova\\AppData\\Roaming\\Python\\Python310\\site-packages\\numpy\\testing\\__init__.py',
   'PYMODULE'),
  ('numpy.testing._private.nosetester',
   'C:\\Users\\prova\\AppData\\Roaming\\Python\\Python310\\site-packages\\numpy\\testing\\_private\\nosetester.py',
   'PYMODULE'),
  ('numpy.testing._private.noseclasses',
   'C:\\Users\\prova\\AppData\\Roaming\\Python\\Python310\\site-packages\\numpy\\testing\\_private\\noseclasses.py',
   'PYMODULE'),
  ('numpy.testing._private.decorators',
   'C:\\Users\\prova\\AppData\\Roaming\\Python\\Python310\\site-packages\\numpy\\testing\\_private\\decorators.py',
   'PYMODULE'),
  ('numpy.testing._private.parameterized',
   'C:\\Users\\prova\\AppData\\Roaming\\Python\\Python310\\site-packages\\numpy\\testing\\_private\\parameterized.py',
   'PYMODULE'),
  ('numpy.testing._private.extbuild',
   'C:\\Users\\prova\\AppData\\Roaming\\Python\\Python310\\site-packages\\numpy\\testing\\_private\\extbuild.py',
   'PYMODULE'),
  ('numpy.testing._private',
   'C:\\Users\\prova\\AppData\\Roaming\\Python\\Python310\\site-packages\\numpy\\testing\\_private\\__init__.py',
   'PYMODULE'),
  ('numpy.testing._private.utils',
   'C:\\Users\\prova\\AppData\\Roaming\\Python\\Python310\\site-packages\\numpy\\testing\\_private\\utils.py',
   'PYMODULE'),
  ('numpy.core.fromnumeric',
   'C:\\Users\\prova\\AppData\\Roaming\\Python\\Python310\\site-packages\\numpy\\core\\fromnumeric.py',
   'PYMODULE'),
  ('numpy.core._methods',
   'C:\\Users\\prova\\AppData\\Roaming\\Python\\Python310\\site-packages\\numpy\\core\\_methods.py',
   'PYMODULE'),
  ('numpy.lib.stride_tricks',
   'C:\\Users\\prova\\AppData\\Roaming\\Python\\Python310\\site-packages\\numpy\\lib\\stride_tricks.py',
   'PYMODULE'),
  ('numpy.core.numeric',
   'C:\\Users\\prova\\AppData\\Roaming\\Python\\Python310\\site-packages\\numpy\\core\\numeric.py',
   'PYMODULE'),
  ('numpy.core._asarray',
   'C:\\Users\\prova\\AppData\\Roaming\\Python\\Python310\\site-packages\\numpy\\core\\_asarray.py',
   'PYMODULE'),
  ('numpy.core.arrayprint',
   'C:\\Users\\prova\\AppData\\Roaming\\Python\\Python310\\site-packages\\numpy\\core\\arrayprint.py',
   'PYMODULE'),
  ('numpy.core._ufunc_config',
   'C:\\Users\\prova\\AppData\\Roaming\\Python\\Python310\\site-packages\\numpy\\core\\_ufunc_config.py',
   'PYMODULE'),
  ('numpy.core.shape_base',
   'C:\\Users\\prova\\AppData\\Roaming\\Python\\Python310\\site-packages\\numpy\\core\\shape_base.py',
   'PYMODULE'),
  ('numpy.core._exceptions',
   'C:\\Users\\prova\\AppData\\Roaming\\Python\\Python310\\site-packages\\numpy\\core\\_exceptions.py',
   'PYMODULE'),
  ('numpy.core.umath',
   'C:\\Users\\prova\\AppData\\Roaming\\Python\\Python310\\site-packages\\numpy\\core\\umath.py',
   'PYMODULE'),
  ('numpy.core.overrides',
   'C:\\Users\\prova\\AppData\\Roaming\\Python\\Python310\\site-packages\\numpy\\core\\overrides.py',
   'PYMODULE'),
  ('numpy.compat._inspect',
   'C:\\Users\\prova\\AppData\\Roaming\\Python\\Python310\\site-packages\\numpy\\compat\\_inspect.py',
   'PYMODULE'),
  ('numpy.core.multiarray',
   'C:\\Users\\prova\\AppData\\Roaming\\Python\\Python310\\site-packages\\numpy\\core\\multiarray.py',
   'PYMODULE'),
  ('numpy.core.numerictypes',
   'C:\\Users\\prova\\AppData\\Roaming\\Python\\Python310\\site-packages\\numpy\\core\\numerictypes.py',
   'PYMODULE'),
  ('numpy.core._dtype',
   'C:\\Users\\prova\\AppData\\Roaming\\Python\\Python310\\site-packages\\numpy\\core\\_dtype.py',
   'PYMODULE'),
  ('numpy.core._type_aliases',
   'C:\\Users\\prova\\AppData\\Roaming\\Python\\Python310\\site-packages\\numpy\\core\\_type_aliases.py',
   'PYMODULE'),
  ('numpy.core._string_helpers',
   'C:\\Users\\prova\\AppData\\Roaming\\Python\\Python310\\site-packages\\numpy\\core\\_string_helpers.py',
   'PYMODULE'),
  ('numpy.matrixlib',
   'C:\\Users\\prova\\AppData\\Roaming\\Python\\Python310\\site-packages\\numpy\\matrixlib\\__init__.py',
   'PYMODULE'),
  ('numpy.matrixlib.defmatrix',
   'C:\\Users\\prova\\AppData\\Roaming\\Python\\Python310\\site-packages\\numpy\\matrixlib\\defmatrix.py',
   'PYMODULE'),
  ('numpy.ma',
   'C:\\Users\\prova\\AppData\\Roaming\\Python\\Python310\\site-packages\\numpy\\ma\\__init__.py',
   'PYMODULE'),
  ('numpy.ma.extras',
   'C:\\Users\\prova\\AppData\\Roaming\\Python\\Python310\\site-packages\\numpy\\ma\\extras.py',
   'PYMODULE'),
  ('numpy.lib.index_tricks',
   'C:\\Users\\prova\\AppData\\Roaming\\Python\\Python310\\site-packages\\numpy\\lib\\index_tricks.py',
   'PYMODULE'),
  ('numpy.lib.function_base',
   'C:\\Users\\prova\\AppData\\Roaming\\Python\\Python310\\site-packages\\numpy\\lib\\function_base.py',
   'PYMODULE'),
  ('numpy.lib.histograms',
   'C:\\Users\\prova\\AppData\\Roaming\\Python\\Python310\\site-packages\\numpy\\lib\\histograms.py',
   'PYMODULE'),
  ('numpy.lib.twodim_base',
   'C:\\Users\\prova\\AppData\\Roaming\\Python\\Python310\\site-packages\\numpy\\lib\\twodim_base.py',
   'PYMODULE'),
  ('numpy.core.function_base',
   'C:\\Users\\prova\\AppData\\Roaming\\Python\\Python310\\site-packages\\numpy\\core\\function_base.py',
   'PYMODULE'),
  ('numpy.ma.core',
   'C:\\Users\\prova\\AppData\\Roaming\\Python\\Python310\\site-packages\\numpy\\ma\\core.py',
   'PYMODULE'),
  ('numpy.ctypeslib',
   'C:\\Users\\prova\\AppData\\Roaming\\Python\\Python310\\site-packages\\numpy\\ctypeslib.py',
   'PYMODULE'),
  ('numpy.core._internal',
   'C:\\Users\\prova\\AppData\\Roaming\\Python\\Python310\\site-packages\\numpy\\core\\_internal.py',
   'PYMODULE'),
  ('numpy.random',
   'C:\\Users\\prova\\AppData\\Roaming\\Python\\Python310\\site-packages\\numpy\\random\\__init__.py',
   'PYMODULE'),
  ('numpy.random._pickle',
   'C:\\Users\\prova\\AppData\\Roaming\\Python\\Python310\\site-packages\\numpy\\random\\_pickle.py',
   'PYMODULE'),
  ('numpy.polynomial',
   'C:\\Users\\prova\\AppData\\Roaming\\Python\\Python310\\site-packages\\numpy\\polynomial\\__init__.py',
   'PYMODULE'),
  ('numpy.polynomial._polybase',
   'C:\\Users\\prova\\AppData\\Roaming\\Python\\Python310\\site-packages\\numpy\\polynomial\\_polybase.py',
   'PYMODULE'),
  ('numpy.polynomial.laguerre',
   'C:\\Users\\prova\\AppData\\Roaming\\Python\\Python310\\site-packages\\numpy\\polynomial\\laguerre.py',
   'PYMODULE'),
  ('numpy.polynomial.hermite_e',
   'C:\\Users\\prova\\AppData\\Roaming\\Python\\Python310\\site-packages\\numpy\\polynomial\\hermite_e.py',
   'PYMODULE'),
  ('numpy.polynomial.hermite',
   'C:\\Users\\prova\\AppData\\Roaming\\Python\\Python310\\site-packages\\numpy\\polynomial\\hermite.py',
   'PYMODULE'),
  ('numpy.polynomial.legendre',
   'C:\\Users\\prova\\AppData\\Roaming\\Python\\Python310\\site-packages\\numpy\\polynomial\\legendre.py',
   'PYMODULE'),
  ('numpy.polynomial.chebyshev',
   'C:\\Users\\prova\\AppData\\Roaming\\Python\\Python310\\site-packages\\numpy\\polynomial\\chebyshev.py',
   'PYMODULE'),
  ('numpy.polynomial.polynomial',
   'C:\\Users\\prova\\AppData\\Roaming\\Python\\Python310\\site-packages\\numpy\\polynomial\\polynomial.py',
   'PYMODULE'),
  ('numpy.polynomial.polyutils',
   'C:\\Users\\prova\\AppData\\Roaming\\Python\\Python310\\site-packages\\numpy\\polynomial\\polyutils.py',
   'PYMODULE'),
  ('numpy.fft',
   'C:\\Users\\prova\\AppData\\Roaming\\Python\\Python310\\site-packages\\numpy\\fft\\__init__.py',
   'PYMODULE'),
  ('numpy.fft.helper',
   'C:\\Users\\prova\\AppData\\Roaming\\Python\\Python310\\site-packages\\numpy\\fft\\helper.py',
   'PYMODULE'),
  ('numpy.fft._pocketfft',
   'C:\\Users\\prova\\AppData\\Roaming\\Python\\Python310\\site-packages\\numpy\\fft\\_pocketfft.py',
   'PYMODULE'),
  ('numpy.linalg',
   'C:\\Users\\prova\\AppData\\Roaming\\Python\\Python310\\site-packages\\numpy\\linalg\\__init__.py',
   'PYMODULE'),
  ('numpy.linalg.linalg',
   'C:\\Users\\prova\\AppData\\Roaming\\Python\\Python310\\site-packages\\numpy\\linalg\\linalg.py',
   'PYMODULE'),
  ('numpy.lib',
   'C:\\Users\\prova\\AppData\\Roaming\\Python\\Python310\\site-packages\\numpy\\lib\\__init__.py',
   'PYMODULE'),
  ('numpy.lib._version',
   'C:\\Users\\prova\\AppData\\Roaming\\Python\\Python310\\site-packages\\numpy\\lib\\_version.py',
   'PYMODULE'),
  ('numpy.lib.arraypad',
   'C:\\Users\\prova\\AppData\\Roaming\\Python\\Python310\\site-packages\\numpy\\lib\\arraypad.py',
   'PYMODULE'),
  ('numpy.lib.arrayterator',
   'C:\\Users\\prova\\AppData\\Roaming\\Python\\Python310\\site-packages\\numpy\\lib\\arrayterator.py',
   'PYMODULE'),
  ('numpy.lib.npyio',
   'C:\\Users\\prova\\AppData\\Roaming\\Python\\Python310\\site-packages\\numpy\\lib\\npyio.py',
   'PYMODULE'),
  ('numpy.ma.mrecords',
   'C:\\Users\\prova\\AppData\\Roaming\\Python\\Python310\\site-packages\\numpy\\ma\\mrecords.py',
   'PYMODULE'),
  ('numpy.core.records',
   'C:\\Users\\prova\\AppData\\Roaming\\Python\\Python310\\site-packages\\numpy\\core\\records.py',
   'PYMODULE'),
  ('numpy.lib._iotools',
   'C:\\Users\\prova\\AppData\\Roaming\\Python\\Python310\\site-packages\\numpy\\lib\\_iotools.py',
   'PYMODULE'),
  ('numpy.lib._datasource',
   'C:\\Users\\prova\\AppData\\Roaming\\Python\\Python310\\site-packages\\numpy\\lib\\_datasource.py',
   'PYMODULE'),
  ('numpy.lib.format',
   'C:\\Users\\prova\\AppData\\Roaming\\Python\\Python310\\site-packages\\numpy\\lib\\format.py',
   'PYMODULE'),
  ('numpy.lib.arraysetops',
   'C:\\Users\\prova\\AppData\\Roaming\\Python\\Python310\\site-packages\\numpy\\lib\\arraysetops.py',
   'PYMODULE'),
  ('numpy.lib.utils',
   'C:\\Users\\prova\\AppData\\Roaming\\Python\\Python310\\site-packages\\numpy\\lib\\utils.py',
   'PYMODULE'),
  ('numpy.lib.polynomial',
   'C:\\Users\\prova\\AppData\\Roaming\\Python\\Python310\\site-packages\\numpy\\lib\\polynomial.py',
   'PYMODULE'),
  ('numpy.lib.ufunclike',
   'C:\\Users\\prova\\AppData\\Roaming\\Python\\Python310\\site-packages\\numpy\\lib\\ufunclike.py',
   'PYMODULE'),
  ('numpy.lib.shape_base',
   'C:\\Users\\prova\\AppData\\Roaming\\Python\\Python310\\site-packages\\numpy\\lib\\shape_base.py',
   'PYMODULE'),
  ('numpy.lib.nanfunctions',
   'C:\\Users\\prova\\AppData\\Roaming\\Python\\Python310\\site-packages\\numpy\\lib\\nanfunctions.py',
   'PYMODULE'),
  ('numpy.lib.type_check',
   'C:\\Users\\prova\\AppData\\Roaming\\Python\\Python310\\site-packages\\numpy\\lib\\type_check.py',
   'PYMODULE'),
  ('numpy.core.getlimits',
   'C:\\Users\\prova\\AppData\\Roaming\\Python\\Python310\\site-packages\\numpy\\core\\getlimits.py',
   'PYMODULE'),
  ('numpy.core._machar',
   'C:\\Users\\prova\\AppData\\Roaming\\Python\\Python310\\site-packages\\numpy\\core\\_machar.py',
   'PYMODULE'),
  ('numpy.lib.scimath',
   'C:\\Users\\prova\\AppData\\Roaming\\Python\\Python310\\site-packages\\numpy\\lib\\scimath.py',
   'PYMODULE'),
  ('numpy.lib.mixins',
   'C:\\Users\\prova\\AppData\\Roaming\\Python\\Python310\\site-packages\\numpy\\lib\\mixins.py',
   'PYMODULE'),
  ('numpy.compat',
   'C:\\Users\\prova\\AppData\\Roaming\\Python\\Python310\\site-packages\\numpy\\compat\\__init__.py',
   'PYMODULE'),
  ('numpy.compat.py3k',
   'C:\\Users\\prova\\AppData\\Roaming\\Python\\Python310\\site-packages\\numpy\\compat\\py3k.py',
   'PYMODULE'),
  ('numpy.core',
   'C:\\Users\\prova\\AppData\\Roaming\\Python\\Python310\\site-packages\\numpy\\core\\__init__.py',
   'PYMODULE'),
  ('numpy.core._add_newdocs_scalars',
   'C:\\Users\\prova\\AppData\\Roaming\\Python\\Python310\\site-packages\\numpy\\core\\_add_newdocs_scalars.py',
   'PYMODULE'),
  ('numpy.core._add_newdocs',
   'C:\\Users\\prova\\AppData\\Roaming\\Python\\Python310\\site-packages\\numpy\\core\\_add_newdocs.py',
   'PYMODULE'),
  ('numpy.core.einsumfunc',
   'C:\\Users\\prova\\AppData\\Roaming\\Python\\Python310\\site-packages\\numpy\\core\\einsumfunc.py',
   'PYMODULE'),
  ('numpy.core.memmap',
   'C:\\Users\\prova\\AppData\\Roaming\\Python\\Python310\\site-packages\\numpy\\core\\memmap.py',
   'PYMODULE'),
  ('numpy.core.defchararray',
   'C:\\Users\\prova\\AppData\\Roaming\\Python\\Python310\\site-packages\\numpy\\core\\defchararray.py',
   'PYMODULE'),
  ('numpy._distributor_init',
   'C:\\Users\\prova\\AppData\\Roaming\\Python\\Python310\\site-packages\\numpy\\_distributor_init.py',
   'PYMODULE'),
  ('numpy.__config__',
   'C:\\Users\\prova\\AppData\\Roaming\\Python\\Python310\\site-packages\\numpy\\__config__.py',
   'PYMODULE'),
  ('numpy.array_api',
   'C:\\Users\\prova\\AppData\\Roaming\\Python\\Python310\\site-packages\\numpy\\array_api\\__init__.py',
   'PYMODULE'),
  ('numpy.array_api._utility_functions',
   'C:\\Users\\prova\\AppData\\Roaming\\Python\\Python310\\site-packages\\numpy\\array_api\\_utility_functions.py',
   'PYMODULE'),
  ('numpy.array_api._array_object',
   'C:\\Users\\prova\\AppData\\Roaming\\Python\\Python310\\site-packages\\numpy\\array_api\\_array_object.py',
   'PYMODULE'),
  ('numpy.typing',
   'C:\\Users\\prova\\AppData\\Roaming\\Python\\Python310\\site-packages\\numpy\\typing\\__init__.py',
   'PYMODULE'),
  ('numpy.typing._add_docstring',
   'C:\\Users\\prova\\AppData\\Roaming\\Python\\Python310\\site-packages\\numpy\\typing\\_add_docstring.py',
   'PYMODULE'),
  ('numpy.typing._generic_alias',
   'C:\\Users\\prova\\AppData\\Roaming\\Python\\Python310\\site-packages\\numpy\\typing\\_generic_alias.py',
   'PYMODULE'),
  ('numpy.typing._array_like',
   'C:\\Users\\prova\\AppData\\Roaming\\Python\\Python310\\site-packages\\numpy\\typing\\_array_like.py',
   'PYMODULE'),
  ('numpy.typing._dtype_like',
   'C:\\Users\\prova\\AppData\\Roaming\\Python\\Python310\\site-packages\\numpy\\typing\\_dtype_like.py',
   'PYMODULE'),
  ('numpy.typing._shape',
   'C:\\Users\\prova\\AppData\\Roaming\\Python\\Python310\\site-packages\\numpy\\typing\\_shape.py',
   'PYMODULE'),
  ('numpy.typing._scalars',
   'C:\\Users\\prova\\AppData\\Roaming\\Python\\Python310\\site-packages\\numpy\\typing\\_scalars.py',
   'PYMODULE'),
  ('numpy.typing._char_codes',
   'C:\\Users\\prova\\AppData\\Roaming\\Python\\Python310\\site-packages\\numpy\\typing\\_char_codes.py',
   'PYMODULE'),
  ('numpy.typing._nbit',
   'C:\\Users\\prova\\AppData\\Roaming\\Python\\Python310\\site-packages\\numpy\\typing\\_nbit.py',
   'PYMODULE'),
  ('numpy.typing._nested_sequence',
   'C:\\Users\\prova\\AppData\\Roaming\\Python\\Python310\\site-packages\\numpy\\typing\\_nested_sequence.py',
   'PYMODULE'),
  ('numpy.array_api._typing',
   'C:\\Users\\prova\\AppData\\Roaming\\Python\\Python310\\site-packages\\numpy\\array_api\\_typing.py',
   'PYMODULE'),
  ('numpy.array_api._statistical_functions',
   'C:\\Users\\prova\\AppData\\Roaming\\Python\\Python310\\site-packages\\numpy\\array_api\\_statistical_functions.py',
   'PYMODULE'),
  ('numpy.array_api._sorting_functions',
   'C:\\Users\\prova\\AppData\\Roaming\\Python\\Python310\\site-packages\\numpy\\array_api\\_sorting_functions.py',
   'PYMODULE'),
  ('numpy.array_api._set_functions',
   'C:\\Users\\prova\\AppData\\Roaming\\Python\\Python310\\site-packages\\numpy\\array_api\\_set_functions.py',
   'PYMODULE'),
  ('numpy.array_api._searching_functions',
   'C:\\Users\\prova\\AppData\\Roaming\\Python\\Python310\\site-packages\\numpy\\array_api\\_searching_functions.py',
   'PYMODULE'),
  ('numpy.array_api._manipulation_functions',
   'C:\\Users\\prova\\AppData\\Roaming\\Python\\Python310\\site-packages\\numpy\\array_api\\_manipulation_functions.py',
   'PYMODULE'),
  ('numpy.array_api.linalg',
   'C:\\Users\\prova\\AppData\\Roaming\\Python\\Python310\\site-packages\\numpy\\array_api\\linalg.py',
   'PYMODULE'),
  ('numpy.array_api._elementwise_functions',
   'C:\\Users\\prova\\AppData\\Roaming\\Python\\Python310\\site-packages\\numpy\\array_api\\_elementwise_functions.py',
   'PYMODULE'),
  ('numpy.array_api._dtypes',
   'C:\\Users\\prova\\AppData\\Roaming\\Python\\Python310\\site-packages\\numpy\\array_api\\_dtypes.py',
   'PYMODULE'),
  ('numpy.array_api._data_type_functions',
   'C:\\Users\\prova\\AppData\\Roaming\\Python\\Python310\\site-packages\\numpy\\array_api\\_data_type_functions.py',
   'PYMODULE'),
  ('numpy.array_api._creation_functions',
   'C:\\Users\\prova\\AppData\\Roaming\\Python\\Python310\\site-packages\\numpy\\array_api\\_creation_functions.py',
   'PYMODULE'),
  ('numpy.array_api._constants',
   'C:\\Users\\prova\\AppData\\Roaming\\Python\\Python310\\site-packages\\numpy\\array_api\\_constants.py',
   'PYMODULE'),
  ('numpy._globals',
   'C:\\Users\\prova\\AppData\\Roaming\\Python\\Python310\\site-packages\\numpy\\_globals.py',
   'PYMODULE'),
  ('os', 'C:\\Program Files\\Python310\\lib\\os.py', 'PYMODULE'),
  ('random', 'C:\\Program Files\\Python310\\lib\\random.py', 'PYMODULE'),
  ('statistics',
   'C:\\Program Files\\Python310\\lib\\statistics.py',
   'PYMODULE'),
  ('fractions', 'C:\\Program Files\\Python310\\lib\\fractions.py', 'PYMODULE'),
  ('typing', 'C:\\Program Files\\Python310\\lib\\typing.py', 'PYMODULE'),
  ('stringprep',
   'C:\\Program Files\\Python310\\lib\\stringprep.py',
   'PYMODULE'),
  ('_py_abc', 'C:\\Program Files\\Python310\\lib\\_py_abc.py', 'PYMODULE'),
  ('tracemalloc',
   'C:\\Program Files\\Python310\\lib\\tracemalloc.py',
   'PYMODULE'),
  ('PyQt5',
   'C:\\Program Files\\Python310\\lib\\site-packages\\PyQt5\\__init__.py',
   'PYMODULE'),
  ('moduli.MainWindowQuoridor',
   'F:\\quoridor_grafica\\moduli\\MainWindowQuoridor.py',
   'PYMODULE')])
